what,kind,bundleId,bundleVersion,description,time
activated,perspective,org.eclipse.jst.j2ee.ui,,"org.eclipse.jst.j2ee.J2EEPerspective",1592534121333
started,bundle,org.eclipse.osgi,3.6.0.v20100517,"org.eclipse.osgi",1592534121334
started,bundle,org.eclipse.equinox.simpleconfigurator,1.0.200.v20100503,"org.eclipse.equinox.simpleconfigurator",1592534121335
started,bundle,com.ibm.icu,4.2.1.v20100412,"com.ibm.icu",1592534121335
started,bundle,org.eclipse.compare,3.5.100.I20100526-0800,"org.eclipse.compare",1592534121336
started,bundle,org.eclipse.core.contenttype,3.4.100.v20100505-1235,"org.eclipse.core.contenttype",1592534121337
started,bundle,org.eclipse.core.databinding.observable,1.3.0.I20100601-0800,"org.eclipse.core.databinding.observable",1592534121338
started,bundle,org.eclipse.core.expressions,3.4.200.v20100505,"org.eclipse.core.expressions",1592534121338
started,bundle,org.eclipse.core.filebuffers,3.5.100.v20100520-0800,"org.eclipse.core.filebuffers",1592534121338
started,bundle,org.eclipse.core.filesystem,1.3.0.v20100526-0737,"org.eclipse.core.filesystem",1592534121339
started,bundle,org.eclipse.core.jobs,3.5.0.v20100515,"org.eclipse.core.jobs",1592534121340
started,bundle,org.eclipse.core.net,1.2.100.I20100511-0800,"org.eclipse.core.net",1592534121340
started,bundle,org.eclipse.core.resources,3.6.0.v20100526-0737,"org.eclipse.core.resources",1592534121341
started,bundle,org.eclipse.core.runtime,3.6.0.v20100505,"org.eclipse.core.runtime",1592534121341
started,bundle,org.eclipse.core.runtime.compatibility,3.2.100.v20100505,"org.eclipse.core.runtime.compatibility",1592534121342
started,bundle,org.eclipse.core.runtime.compatibility.auth,3.2.200.v20100517,"org.eclipse.core.runtime.compatibility.auth",1592534121342
started,bundle,org.eclipse.emf.common,2.6.0.v20100614-1136,"org.eclipse.emf.common",1592534121342
started,bundle,org.eclipse.emf.common.ui,2.6.0.v20100614-1136,"org.eclipse.emf.common.ui",1592534121342
started,bundle,org.eclipse.emf.ecore,2.6.0.v20100614-1136,"org.eclipse.emf.ecore",1592534121342
started,bundle,org.eclipse.emf.ecore.xmi,2.5.0.v20100521-1846,"org.eclipse.emf.ecore.xmi",1592534121343
started,bundle,org.eclipse.emf.edit,2.6.0.v20100614-1136,"org.eclipse.emf.edit",1592534121343
started,bundle,org.eclipse.emf.edit.ui,2.6.0.v20100614-1136,"org.eclipse.emf.edit.ui",1592534121343
started,bundle,org.eclipse.epp.usagedata.gathering,1.3.0.R201005261100,"org.eclipse.epp.usagedata.gathering",1592534121343
started,bundle,org.eclipse.epp.usagedata.recording,1.3.0.R201005261100,"org.eclipse.epp.usagedata.recording",1592534121344
started,bundle,org.eclipse.equinox.app,1.3.0.v20100512,"org.eclipse.equinox.app",1592534121344
started,bundle,org.eclipse.equinox.common,3.6.0.v20100503,"org.eclipse.equinox.common",1592534121344
started,bundle,org.eclipse.equinox.ds,1.2.0.v20100507,"org.eclipse.equinox.ds",1592534121345
started,bundle,org.eclipse.equinox.event,1.2.0.v20100503,"org.eclipse.equinox.event",1592534121346
started,bundle,org.eclipse.equinox.p2.core,2.0.0.v20100510,"org.eclipse.equinox.p2.core",1592534121346
started,bundle,org.eclipse.equinox.p2.directorywatcher,1.0.200.v20100601,"org.eclipse.equinox.p2.directorywatcher",1592534121357
started,bundle,org.eclipse.equinox.p2.engine,2.0.0.v20100606,"org.eclipse.equinox.p2.engine",1592534121358
started,bundle,org.eclipse.equinox.p2.metadata,2.0.0.v20100601,"org.eclipse.equinox.p2.metadata",1592534121359
started,bundle,org.eclipse.equinox.p2.metadata.repository,1.1.0.v20100513,"org.eclipse.equinox.p2.metadata.repository",1592534121359
started,bundle,org.eclipse.equinox.p2.operations,2.0.0.v20100510,"org.eclipse.equinox.p2.operations",1592534121360
started,bundle,org.eclipse.equinox.p2.reconciler.dropins,1.1.0.v20100525,"org.eclipse.equinox.p2.reconciler.dropins",1592534121360
started,bundle,org.eclipse.equinox.p2.repository,2.0.0.v20100519,"org.eclipse.equinox.p2.repository",1592534121361
started,bundle,org.eclipse.equinox.p2.ui.sdk.scheduler,1.0.0.v20100507-1815,"org.eclipse.equinox.p2.ui.sdk.scheduler",1592534121361
started,bundle,org.eclipse.equinox.p2.updatechecker,1.1.100.v20100503a,"org.eclipse.equinox.p2.updatechecker",1592534121361
started,bundle,org.eclipse.equinox.preferences,3.3.0.v20100503,"org.eclipse.equinox.preferences",1592534121362
started,bundle,org.eclipse.equinox.registry,3.5.0.v20100503,"org.eclipse.equinox.registry",1592534121363
started,bundle,org.eclipse.equinox.security,1.0.200.v20100503,"org.eclipse.equinox.security",1592534121597
started,bundle,org.eclipse.equinox.util,1.0.200.v20100503,"org.eclipse.equinox.util",1592534121598
started,bundle,org.eclipse.help,3.5.0.v20100524,"org.eclipse.help",1592534121598
started,bundle,org.eclipse.jdt.core,3.6.0.v_A58,"org.eclipse.jdt.core",1592534121599
started,bundle,org.eclipse.jdt.core.manipulation,1.3.0.v20100520-0800,"org.eclipse.jdt.core.manipulation",1592534121600
started,bundle,org.eclipse.jdt.ui,3.6.0.v20100602-1600,"org.eclipse.jdt.ui",1592534121602
started,bundle,org.eclipse.jem.util,2.1.0.v201005130500,"org.eclipse.jem.util",1592534121602
started,bundle,org.eclipse.jface,3.6.0.I20100601-0800,"org.eclipse.jface",1592534121603
started,bundle,org.eclipse.jst.j2ee.ui,1.1.400.v201006030400,"org.eclipse.jst.j2ee.ui",1592534121604
started,bundle,org.eclipse.jst.j2ee.webservice,1.1.400.v201004110600,"org.eclipse.jst.j2ee.webservice",1592534121604
started,bundle,org.eclipse.jst.j2ee.webservice.ui,1.1.400.v201004110600,"org.eclipse.jst.j2ee.webservice.ui",1592534121605
started,bundle,org.eclipse.jst.ws.jaxws.utils,1.0.0.v201004171919,"org.eclipse.jst.ws.jaxws.utils",1592534121605
started,bundle,org.eclipse.mylyn.monitor.ui,3.4.0.v20100608-0100-e3x,"org.eclipse.mylyn.monitor.ui",1592534121606
started,bundle,org.eclipse.team.core,3.5.100.I20100527-0800,"org.eclipse.team.core",1592534121607
started,bundle,org.eclipse.team.ui,3.5.100.I20100527-0800,"org.eclipse.team.ui",1592534121607
started,bundle,org.eclipse.ui,3.6.0.I20100603-1100,"org.eclipse.ui",1592534121608
started,bundle,org.eclipse.ui.console,3.5.0.v20100526,"org.eclipse.ui.console",1592534121609
started,bundle,org.eclipse.ui.editors,3.6.0.v20100520-0800,"org.eclipse.ui.editors",1592534121609
started,bundle,org.eclipse.ui.forms,3.5.0.v20100427,"org.eclipse.ui.forms",1592534121610
started,bundle,org.eclipse.ui.ide,3.6.0.I20100601-0800,"org.eclipse.ui.ide",1592534121610
started,bundle,org.eclipse.ui.intro,3.4.0.v20100427,"org.eclipse.ui.intro",1592534121611
started,bundle,org.eclipse.ui.intro.universal,3.2.400.v20100517,"org.eclipse.ui.intro.universal",1592534121611
started,bundle,org.eclipse.ui.navigator,3.5.0.I20100601-0800,"org.eclipse.ui.navigator",1592534121611
started,bundle,org.eclipse.ui.navigator.resources,3.4.200.I20100601-0800,"org.eclipse.ui.navigator.resources",1592534121612
started,bundle,org.eclipse.ui.net,1.2.100.I20100505-1245,"org.eclipse.ui.net",1592534121612
started,bundle,org.eclipse.ui.views,3.5.0.I20100527-0800,"org.eclipse.ui.views",1592534121613
started,bundle,org.eclipse.ui.workbench,3.6.0.I20100603-1100,"org.eclipse.ui.workbench",1592534121613
started,bundle,org.eclipse.ui.workbench.texteditor,3.6.0.v20100520-0800,"org.eclipse.ui.workbench.texteditor",1592534121614
started,bundle,org.eclipse.update.configurator,3.3.100.v20100512,"org.eclipse.update.configurator",1592534121615
started,bundle,org.eclipse.update.core,3.2.400.v20100512,"org.eclipse.update.core",1592534121650
started,bundle,org.eclipse.update.scheduler,3.2.300.v20100512,"org.eclipse.update.scheduler",1592534121651
started,bundle,org.eclipse.wst.common.emf,1.2.0.v201005200700,"org.eclipse.wst.common.emf",1592534121652
started,bundle,org.eclipse.wst.common.emfworkbench.integration,1.2.0.v201004110600,"org.eclipse.wst.common.emfworkbench.integration",1592534121653
started,bundle,org.eclipse.wst.common.frameworks,1.2.0.v201003040800,"org.eclipse.wst.common.frameworks",1592534121653
started,bundle,org.eclipse.wst.common.project.facet.core,1.4.100.v201005190114,"org.eclipse.wst.common.project.facet.core",1592534121653
started,bundle,org.eclipse.wst.jsdt.core,1.1.0.v201006030738,"org.eclipse.wst.jsdt.core",1592534121654
started,bundle,org.eclipse.wst.jsdt.manipulation,1.0.200.v201004150600,"org.eclipse.wst.jsdt.manipulation",1592534121654
started,bundle,org.eclipse.wst.jsdt.ui,1.1.0.v201005200157,"org.eclipse.wst.jsdt.ui",1592534121654
started,bundle,org.eclipse.wst.web,1.1.400.v201005270700,"org.eclipse.wst.web",1592534121655
started,bundle,org.eclipse.mylyn.commons.net,3.4.1.v20100625-2100-e3x,"org.eclipse.mylyn.commons.net",1592534121655
started,bundle,org.tigris.subversion.clientadapter,1.8.6,"org.tigris.subversion.clientadapter",1592534121655
started,bundle,org.tigris.subversion.subclipse.core,1.8.22,"org.tigris.subversion.subclipse.core",1592534121656
started,bundle,org.tigris.subversion.subclipse.tools.usage,1.1.0,"org.tigris.subversion.subclipse.tools.usage",1592534121656
started,bundle,org.tigris.subversion.subclipse.ui,1.8.21,"org.tigris.subversion.subclipse.ui",1592534121657
os,sysinfo,,,"win32",1592534121659
arch,sysinfo,,,"x86",1592534121659
ws,sysinfo,,,"win32",1592534121659
locale,sysinfo,,,"es_AR",1592534121659
processors,sysinfo,,,"6",1592534121659
java.runtime.name,sysinfo,,,"Java(TM) SE Runtime Environment",1592534121659
java.runtime.version,sysinfo,,,"1.8.0_231-b11",1592534121659
java.specification.name,sysinfo,,,"Java Platform API Specification",1592534121659
java.specification.vendor,sysinfo,,,"Oracle Corporation",1592534121659
java.specification.version,sysinfo,,,"1.8",1592534121659
java.vendor,sysinfo,,,"Oracle Corporation",1592534121659
java.version,sysinfo,,,"1.8.0_231",1592534121659
java.vm.info,sysinfo,,,"mixed mode",1592534121659
java.vm.name,sysinfo,,,"Java HotSpot(TM) Client VM",1592534121659
java.vm.specification.name,sysinfo,,,"Java Virtual Machine Specification",1592534121659
java.vm.specification.vendor,sysinfo,,,"Oracle Corporation",1592534121659
java.vm.specification.version,sysinfo,,,"1.8",1592534121659
java.vm.vendor,sysinfo,,,"Oracle Corporation",1592534121659
java.vm.version,sysinfo,,,"25.231-b11",1592534121659
deactivated,workbench,org.eclipse.ui.workbench,3.6.0.I20100603-1100,"",1592534121703
started,bundle,org.eclipse.mylyn.commons.ui,3.4.0.v20100608-0100-e3x,"org.eclipse.mylyn.commons.ui",1592534122242
started,bundle,org.eclipse.mylyn.bugzilla.core,3.4.0.v20100608-0100-e3x,"org.eclipse.mylyn.bugzilla.core",1592534122303
started,bundle,org.eclipse.mylyn.bugzilla.ui,3.4.0.v20100608-0100-e3x,"org.eclipse.mylyn.bugzilla.ui",1592534122360
started,bundle,org.eclipse.mylyn.context.core,3.4.0.v20100608-0100-e3x,"org.eclipse.mylyn.context.core",1592534122669
started,bundle,org.eclipse.mylyn.context.ui,3.4.0.v20100608-0100-e3x,"org.eclipse.mylyn.context.ui",1592534122679
started,bundle,org.eclipse.mylyn.tasks.ui,3.4.0.v20100608-0100-e3x,"org.eclipse.mylyn.tasks.ui",1592534122873
started,bundle,org.eclipse.mylyn.team.ui,3.4.0.v20100608-0100-e3x,"org.eclipse.mylyn.team.ui",1592534122887
started,bundle,org.tigris.subversion.subclipse.mylyn,3.0.0,"org.tigris.subversion.subclipse.mylyn",1592534122990
started,bundle,org.eclipse.jsch.core,1.1.200.I20100505-1245,"org.eclipse.jsch.core",1592534124058
started,bundle,org.eclipse.team.cvs.core,3.3.300.I20100526-0800,"org.eclipse.team.cvs.core",1592534124059
started,bundle,org.eclipse.team.cvs.ui,3.3.300.I20100526-0800,"org.eclipse.team.cvs.ui",1592534124110
activated,workbench,org.eclipse.ui.workbench,3.6.0.I20100603-1100,"",1592534127736
deactivated,workbench,org.eclipse.ui.workbench,3.6.0.I20100603-1100,"",1592534129877
activated,workbench,org.eclipse.ui.workbench,3.6.0.I20100603-1100,"",1592534131795
started,bundle,org.eclipse.help.base,3.5.0.v201006080911,"org.eclipse.help.base",1592534146399
started,bundle,org.eclipse.help.ui,3.5.0.v20100517,"org.eclipse.help.ui",1592534146411
started,bundle,org.eclipse.equinox.http.jetty,2.0.0.v20100503,"org.eclipse.equinox.http.jetty",1592534146717
started,bundle,org.eclipse.equinox.http.servlet,1.1.0.v20100503,"org.eclipse.equinox.http.servlet",1592534146983
started,bundle,org.eclipse.equinox.http.registry,1.1.0.v20100503,"org.eclipse.equinox.http.registry",1592534147296
deactivated,workbench,org.eclipse.ui.workbench,3.6.0.I20100603-1100,"",1592534147469
started,bundle,org.eclipse.equinox.jsp.jasper.registry,1.0.200.v20100503,"org.eclipse.equinox.jsp.jasper.registry",1592534147810
started,bundle,org.eclipse.equinox.jsp.jasper,1.0.200.v20100421,"org.eclipse.equinox.jsp.jasper",1592534148003
started,bundle,org.eclipse.help.webapp,3.5.0.v20100507,"org.eclipse.help.webapp",1592534148711
activated,workbench,org.eclipse.ui.workbench,3.6.0.I20100603-1100,"",1592534149396
deactivated,workbench,org.eclipse.ui.workbench,3.6.0.I20100603-1100,"",1592534152942
activated,workbench,org.eclipse.ui.workbench,3.6.0.I20100603-1100,"",1592534154271
deactivated,workbench,org.eclipse.ui.workbench,3.6.0.I20100603-1100,"",1592534179407
activated,workbench,org.eclipse.ui.workbench,3.6.0.I20100603-1100,"",1592534180522
closed,workbench,org.eclipse.ui.workbench,3.6.0.I20100603-1100,"",1592534180637
stopped,bundle,org.eclipse.jst.j2ee.xdoclet.runtime,1.1.300.v201004280700,"org.eclipse.jst.j2ee.xdoclet.runtime",1592534181404
stopped,bundle,org.eclipse.jst.j2ee.ejb.annotations.xdoclet,1.2.100.v201003112036,"org.eclipse.jst.j2ee.ejb.annotations.xdoclet",1592534181405
stopped,bundle,org.eclipse.jst.server.generic.jboss,1.6.1.v200904151730,"org.eclipse.jst.server.generic.jboss",1592534181406
stopped,bundle,org.eclipse.jst.server.generic.jonas,1.5.205.v200805140145,"org.eclipse.jst.server.generic.jonas",1592534181407
stopped,bundle,org.eclipse.jst.server.generic.oc4j,1.5.206.v20090812,"org.eclipse.jst.server.generic.oc4j",1592534181408
stopped,bundle,org.eclipse.jst.server.websphere.core,1.0.302.v20080620,"org.eclipse.jst.server.websphere.core",1592534181409
stopped,bundle,org.eclipse.jst.server.generic.ui,1.0.505.v20100428,"org.eclipse.jst.server.generic.ui",1592534181410
stopped,bundle,org.eclipse.jst.server.generic.core,1.0.606.v20100512,"org.eclipse.jst.server.generic.core",1592534181411
stopped,bundle,org.eclipse.mylyn.ide.ant,3.4.0.v20100608-0100-e3x,"org.eclipse.mylyn.ide.ant",1592534181411
stopped,bundle,org.eclipse.pde.api.tools.ui,1.0.201.v20100820_r361,"org.eclipse.pde.api.tools.ui",1592534181412
stopped,bundle,org.eclipse.wb.rcp.GroupLayout,1.6.0.r42x201305212046,"org.eclipse.wb.rcp.GroupLayout",1592534181461
stopped,bundle,org.eclipse.wb.rcp.SWT_AWT,1.6.0.r42x201305212048,"org.eclipse.wb.rcp.SWT_AWT",1592534181565
stopped,bundle,org.eclipse.wb.rcp.databinding.emf,1.6.0.r42x201305212028,"org.eclipse.wb.rcp.databinding.emf",1592534181576
stopped,bundle,org.eclipse.wb.rcp.databinding.xwt,1.6.0.r42x201305212050,"org.eclipse.wb.rcp.databinding.xwt",1592534181601
stopped,bundle,org.eclipse.wb.rcp.databinding,1.6.0.r42x201305212028,"org.eclipse.wb.rcp.databinding",1592534181612
stopped,bundle,org.eclipse.wb.rcp.nebula,1.6.0.r42x201305212028,"org.eclipse.wb.rcp.nebula",1592534181621
